[{
  "_id": {
    "$oid": "6516d9cc084bf2915ce1bb4e"
  },
  "user": {
    "$oid": "6516d8124cb39cadf0e6f6c7"
  },
  "bikeModel": "TVS 50",
  "service": [
    {
      "$oid": "6516677eb738f3c0557871b3"
    }
  ],
  "bookingDate": {
    "$date": "2023-09-29T00:00:00.000Z"
  },
  "status": "Ready For Delivery",
  "__v": 1
},
{
  "_id": {
    "$oid": "6516da5ff8e2cc936e9519a1"
  },
  "user": {
    "$oid": "6516d8124cb39cadf0e6f6c7"
  },
  "bikeModel": "CT 100",
  "service": [
    {
      "$oid": "6516677eb738f3c0557871b2"
    },
    {
      "$oid": "6516677eb738f3c0557871b3"
    }
  ],
  "bookingDate": {
    "$date": "2023-09-29T00:00:00.000Z"
  },
  "status": "Pending",
  "__v": 0
}]